[
    {
        "name": "OnOverworldEnter",
        "trigger": "overworld_start",
        "level_nid": "2",
        "condition": "True",
        "commands": [],
        "only_once": true,
        "priority": 20,
        "_source": [
            "sound;RefreshDance",
            "map_anim;AOE_Mend;Ide (5)",
            "reveal_overworld_node;Ide (5)",
            "wait;500",
            "sound;Mend",
            "reveal_overworld_road;Frelia Castle (2);Ide (5)"
        ]
    }
]