[
    {
        "nid": "1",
        "name": "Ch. 2:",
        "tilemap": "Ch2",
        "bg_tilemap": null,
        "party": "Eirika",
        "music": {
            "player_phase": "Distant Roads",
            "enemy_phase": "Shadow of the Enemy",
            "other_phase": null,
            "enemy2_phase": null,
            "player_battle": "Attack",
            "enemy_battle": "Defense",
            "other_battle": null,
            "enemy2_battle": null
        },
        "objective": {
            "simple": "Defeat enemy,Left {eval:15-game.level_vars['DeadEnemies']}",
            "win": "Defeat enemy,Left {eval:15-game.level_vars['DeadEnemies']}",
            "loss": "Two Player Units Die"
        },
        "roam": false,
        "roam_unit": null,
        "go_to_overworld": false,
        "should_record": true,
        "units": [
            {
                "nid": "Alpin",
                "team": "player",
                "ai": "None",
                "roam_ai": null,
                "ai_group": null,
                "starting_position": null,
                "starting_traveler": null,
                "generic": false
            },
            {
                "nid": "Carlin",
                "team": "player",
                "ai": "None",
                "roam_ai": null,
                "ai_group": null,
                "starting_position": null,
                "starting_traveler": null,
                "generic": false
            },
            {
                "nid": "Zoya",
                "team": "player",
                "ai": "None",
                "roam_ai": null,
                "ai_group": null,
                "starting_position": null,
                "starting_traveler": null,
                "generic": false
            },
            {
                "nid": "Shayla",
                "team": "player",
                "ai": "None",
                "roam_ai": null,
                "ai_group": null,
                "starting_position": null,
                "starting_traveler": null,
                "generic": false
            },
            {
                "nid": "Elwynn",
                "team": "player",
                "ai": "None",
                "roam_ai": null,
                "ai_group": "",
                "starting_position": null,
                "starting_traveler": null,
                "generic": false
            },
            {
                "nid": "Quinley",
                "team": "other",
                "ai": "None",
                "roam_ai": null,
                "ai_group": "",
                "starting_position": null,
                "starting_traveler": null,
                "generic": false
            },
            {
                "nid": "Sloane",
                "team": "other",
                "ai": "None",
                "roam_ai": null,
                "ai_group": "",
                "starting_position": null,
                "starting_traveler": null,
                "generic": false
            },
            {
                "nid": "Leod",
                "team": "other",
                "ai": "None",
                "roam_ai": null,
                "ai_group": "",
                "starting_position": null,
                "starting_traveler": null,
                "generic": false
            },
            {
                "nid": "Lamonte",
                "team": "other",
                "ai": "None",
                "roam_ai": null,
                "ai_group": "",
                "starting_position": null,
                "starting_traveler": null,
                "generic": false
            },
            {
                "nid": "Garvey",
                "team": "other",
                "ai": "None",
                "roam_ai": null,
                "ai_group": "",
                "starting_position": null,
                "starting_traveler": null,
                "generic": false
            },
            {
                "nid": "Elspeth",
                "team": "other",
                "ai": "None",
                "roam_ai": null,
                "ai_group": "",
                "starting_position": null,
                "starting_traveler": null,
                "generic": false
            },
            {
                "nid": "Brassfield",
                "team": "enemy",
                "ai": "AttackNoMove",
                "roam_ai": null,
                "ai_group": null,
                "starting_position": null,
                "starting_traveler": null,
                "generic": false
            },
            {
                "nid": "Emberson",
                "team": "enemy",
                "ai": "None",
                "roam_ai": null,
                "ai_group": "",
                "starting_position": null,
                "starting_traveler": null,
                "generic": false
            },
            {
                "nid": "Barrel_1",
                "variant": null,
                "level": 1,
                "klass": "Wall15",
                "faction": "Wall",
                "starting_items": [],
                "starting_skills": [],
                "team": "enemy2",
                "ai": "None",
                "roam_ai": null,
                "ai_group": "",
                "starting_position": [
                    10,
                    13
                ],
                "starting_traveler": null,
                "generic": true
            },
            {
                "nid": "Barrel_2",
                "variant": null,
                "level": 1,
                "klass": "Wall15",
                "faction": "Wall",
                "starting_items": [],
                "starting_skills": [],
                "team": "enemy2",
                "ai": "None",
                "roam_ai": null,
                "ai_group": "",
                "starting_position": [
                    10,
                    14
                ],
                "starting_traveler": null,
                "generic": true
            },
            {
                "nid": "Barrel_3",
                "variant": null,
                "level": 1,
                "klass": "Wall15",
                "faction": "Wall",
                "starting_items": [],
                "starting_skills": [],
                "team": "enemy2",
                "ai": "None",
                "roam_ai": null,
                "ai_group": "",
                "starting_position": [
                    11,
                    14
                ],
                "starting_traveler": null,
                "generic": true
            },
            {
                "nid": "Barrel_4",
                "variant": null,
                "level": 1,
                "klass": "Wall15",
                "faction": "Wall",
                "starting_items": [],
                "starting_skills": [],
                "team": "enemy2",
                "ai": "None",
                "roam_ai": null,
                "ai_group": "",
                "starting_position": [
                    12,
                    14
                ],
                "starting_traveler": null,
                "generic": true
            },
            {
                "nid": "Barrel_5",
                "variant": null,
                "level": 1,
                "klass": "Wall15",
                "faction": "Wall",
                "starting_items": [],
                "starting_skills": [],
                "team": "enemy2",
                "ai": "None",
                "roam_ai": null,
                "ai_group": "",
                "starting_position": [
                    12,
                    13
                ],
                "starting_traveler": null,
                "generic": true
            },
            {
                "nid": "Cutscene_1",
                "variant": null,
                "level": 1,
                "klass": "Soldier",
                "faction": "Soldier",
                "starting_items": [],
                "starting_skills": [],
                "team": "enemy",
                "ai": "None",
                "roam_ai": null,
                "ai_group": "",
                "starting_position": null,
                "starting_traveler": null,
                "generic": true
            },
            {
                "nid": "Cutscene_2",
                "variant": null,
                "level": 1,
                "klass": "Fighter",
                "faction": "Soldier",
                "starting_items": [],
                "starting_skills": [],
                "team": "enemy",
                "ai": "None",
                "roam_ai": null,
                "ai_group": "",
                "starting_position": null,
                "starting_traveler": null,
                "generic": true
            },
            {
                "nid": "Cutscene_3",
                "variant": null,
                "level": 1,
                "klass": "Fighter",
                "faction": "Soldier",
                "starting_items": [],
                "starting_skills": [],
                "team": "enemy",
                "ai": "None",
                "roam_ai": null,
                "ai_group": "",
                "starting_position": null,
                "starting_traveler": null,
                "generic": true
            },
            {
                "nid": "Cutscene_4",
                "variant": null,
                "level": 1,
                "klass": "Knight",
                "faction": "Soldier",
                "starting_items": [],
                "starting_skills": [],
                "team": "enemy",
                "ai": "None",
                "roam_ai": null,
                "ai_group": "",
                "starting_position": null,
                "starting_traveler": null,
                "generic": true
            },
            {
                "nid": "Cutscene_5",
                "variant": null,
                "level": 1,
                "klass": "ManDead_1",
                "faction": "Soldier",
                "starting_items": [
                    [
                        "Treat",
                        false
                    ]
                ],
                "starting_skills": [],
                "team": "enemy",
                "ai": "None",
                "roam_ai": null,
                "ai_group": "",
                "starting_position": null,
                "starting_traveler": null,
                "generic": true
            },
            {
                "nid": "Cutscene_6",
                "variant": null,
                "level": 1,
                "klass": "Fighter",
                "faction": "Soldier",
                "starting_items": [
                    [
                        "Iron Axe",
                        false
                    ]
                ],
                "starting_skills": [],
                "team": "enemy",
                "ai": "None",
                "roam_ai": null,
                "ai_group": "",
                "starting_position": null,
                "starting_traveler": null,
                "generic": true
            },
            {
                "nid": "DeadVillager_1",
                "variant": null,
                "level": 1,
                "klass": "ManDead",
                "faction": "Villager",
                "starting_items": [],
                "starting_skills": [],
                "team": "other",
                "ai": "None",
                "roam_ai": null,
                "ai_group": "",
                "starting_position": null,
                "starting_traveler": null,
                "generic": true
            },
            {
                "nid": "DeadVillager_2",
                "variant": null,
                "level": 1,
                "klass": "ManDead_1",
                "faction": "Villager",
                "starting_items": [],
                "starting_skills": [],
                "team": "other",
                "ai": "None",
                "roam_ai": null,
                "ai_group": "",
                "starting_position": null,
                "starting_traveler": null,
                "generic": true
            },
            {
                "nid": "DeadVillager_3",
                "variant": null,
                "level": 1,
                "klass": "WomanDead_1",
                "faction": "Villager",
                "starting_items": [],
                "starting_skills": [],
                "team": "other",
                "ai": "None",
                "roam_ai": null,
                "ai_group": "",
                "starting_position": null,
                "starting_traveler": null,
                "generic": true
            },
            {
                "nid": "Crates",
                "variant": null,
                "level": 1,
                "klass": "Wall15",
                "faction": "Wall",
                "starting_items": [],
                "starting_skills": [],
                "team": "enemy2",
                "ai": "None",
                "roam_ai": null,
                "ai_group": "",
                "starting_position": null,
                "starting_traveler": null,
                "generic": true
            }
        ],
        "regions": [
            {
                "nid": "House1",
                "region_type": "event",
                "position": [
                    3,
                    15
                ],
                "size": [
                    1,
                    1
                ],
                "sub_nid": "Visit",
                "condition": "unit.team == 'player'",
                "time_left": null,
                "only_once": true,
                "interrupt_move": false
            },
            {
                "nid": "House2",
                "region_type": "event",
                "position": [
                    17,
                    14
                ],
                "size": [
                    1,
                    1
                ],
                "sub_nid": "Visit",
                "condition": "unit.team == 'player'",
                "time_left": null,
                "only_once": true,
                "interrupt_move": false
            },
            {
                "nid": "VisionTopLeft",
                "region_type": "vision",
                "position": [
                    14,
                    2
                ],
                "size": [
                    1,
                    1
                ],
                "sub_nid": "1",
                "condition": "True",
                "time_left": null,
                "only_once": false,
                "interrupt_move": false
            },
            {
                "nid": "VisionTopRight",
                "region_type": "vision",
                "position": [
                    18,
                    2
                ],
                "size": [
                    1,
                    1
                ],
                "sub_nid": "1",
                "condition": "True",
                "time_left": null,
                "only_once": false,
                "interrupt_move": false
            },
            {
                "nid": "VisionBotLeft",
                "region_type": "vision",
                "position": [
                    3,
                    15
                ],
                "size": [
                    1,
                    1
                ],
                "sub_nid": "1",
                "condition": "True",
                "time_left": null,
                "only_once": false,
                "interrupt_move": false
            },
            {
                "nid": "VisionBotMid",
                "region_type": "vision",
                "position": [
                    11,
                    12
                ],
                "size": [
                    1,
                    1
                ],
                "sub_nid": "2",
                "condition": "True",
                "time_left": null,
                "only_once": false,
                "interrupt_move": false
            },
            {
                "nid": "VisionBotRight",
                "region_type": "vision",
                "position": [
                    17,
                    14
                ],
                "size": [
                    1,
                    1
                ],
                "sub_nid": "1",
                "condition": "True",
                "time_left": null,
                "only_once": false,
                "interrupt_move": false
            },
            {
                "nid": "Form1",
                "region_type": "formation",
                "position": [
                    4,
                    2
                ],
                "size": [
                    1,
                    1
                ],
                "sub_nid": "",
                "condition": "True",
                "time_left": null,
                "only_once": false,
                "interrupt_move": false
            },
            {
                "nid": "Form2",
                "region_type": "formation",
                "position": [
                    6,
                    2
                ],
                "size": [
                    1,
                    1
                ],
                "sub_nid": "",
                "condition": "True",
                "time_left": null,
                "only_once": false,
                "interrupt_move": false
            },
            {
                "nid": "Form3",
                "region_type": "formation",
                "position": [
                    4,
                    0
                ],
                "size": [
                    1,
                    1
                ],
                "sub_nid": null,
                "condition": "True",
                "time_left": null,
                "only_once": false,
                "interrupt_move": false
            },
            {
                "nid": "Form4",
                "region_type": "formation",
                "position": [
                    5,
                    1
                ],
                "size": [
                    1,
                    1
                ],
                "sub_nid": null,
                "condition": "True",
                "time_left": null,
                "only_once": false,
                "interrupt_move": false
            },
            {
                "nid": "Form5",
                "region_type": "formation",
                "position": [
                    6,
                    0
                ],
                "size": [
                    1,
                    1
                ],
                "sub_nid": null,
                "condition": "True",
                "time_left": null,
                "only_once": false,
                "interrupt_move": false
            },
            {
                "nid": "Form6",
                "region_type": "formation",
                "position": [
                    7,
                    1
                ],
                "size": [
                    1,
                    1
                ],
                "sub_nid": "",
                "condition": "True",
                "time_left": null,
                "only_once": false,
                "interrupt_move": false
            },
            {
                "nid": "Alleyway1_1",
                "region_type": "vision",
                "position": [
                    5,
                    3
                ],
                "size": [
                    1,
                    1
                ],
                "sub_nid": "1",
                "condition": "True",
                "time_left": null,
                "only_once": false,
                "interrupt_move": false
            },
            {
                "nid": "Alleyway1_2",
                "region_type": "vision",
                "position": [
                    10,
                    2
                ],
                "size": [
                    1,
                    1
                ],
                "sub_nid": "1",
                "condition": "True",
                "time_left": null,
                "only_once": false,
                "interrupt_move": false
            },
            {
                "nid": "Alleyway1_3",
                "region_type": "vision",
                "position": [
                    14,
                    4
                ],
                "size": [
                    1,
                    1
                ],
                "sub_nid": "1",
                "condition": "True",
                "time_left": null,
                "only_once": false,
                "interrupt_move": false
            },
            {
                "nid": "Alleyway1_4",
                "region_type": "vision",
                "position": [
                    2,
                    9
                ],
                "size": [
                    1,
                    1
                ],
                "sub_nid": "1",
                "condition": "True",
                "time_left": null,
                "only_once": false,
                "interrupt_move": false
            },
            {
                "nid": "Alleyway1_5",
                "region_type": "vision",
                "position": [
                    6,
                    9
                ],
                "size": [
                    1,
                    1
                ],
                "sub_nid": "1",
                "condition": "True",
                "time_left": null,
                "only_once": false,
                "interrupt_move": false
            },
            {
                "nid": "Alleyway1_6",
                "region_type": "vision",
                "position": [
                    10,
                    9
                ],
                "size": [
                    1,
                    1
                ],
                "sub_nid": "1",
                "condition": "True",
                "time_left": null,
                "only_once": false,
                "interrupt_move": false
            },
            {
                "nid": "Alleyway1_7",
                "region_type": "vision",
                "position": [
                    13,
                    9
                ],
                "size": [
                    1,
                    1
                ],
                "sub_nid": "1",
                "condition": "True",
                "time_left": null,
                "only_once": false,
                "interrupt_move": false
            }
        ],
        "unit_groups": [
            {
                "nid": "Enemy1",
                "units": [],
                "positions": {}
            }
        ],
        "ai_groups": []
    }
]