[
    {
        "nid": "DEBUG",
        "name": "DEBUG",
        "tilemap": "Ch5",
        "bg_tilemap": null,
        "party": "Eirika",
        "music": {
            "player_phase": "BattleFateMain",
            "enemy_phase": null,
            "other_phase": null,
            "enemy2_phase": null,
            "player_battle": "Attack",
            "enemy_battle": null,
            "other_battle": null,
            "enemy2_battle": null
        },
        "objective": {
            "simple": "DEBUG",
            "win": "Don't Crash",
            "loss": "Crash"
        },
        "roam": false,
        "roam_unit": null,
        "go_to_overworld": false,
        "should_record": true,
        "units": [
            {
                "nid": "Alpin",
                "team": "player",
                "ai": "None",
                "roam_ai": null,
                "ai_group": "",
                "starting_position": [
                    9,
                    13
                ],
                "starting_traveler": null,
                "generic": false
            },
            {
                "nid": "Carlin",
                "team": "player",
                "ai": "None",
                "roam_ai": null,
                "ai_group": "",
                "starting_position": [
                    8,
                    7
                ],
                "starting_traveler": null,
                "generic": false
            },
            {
                "nid": "Shayla",
                "team": "player",
                "ai": "None",
                "roam_ai": null,
                "ai_group": "",
                "starting_position": [
                    6,
                    5
                ],
                "starting_traveler": null,
                "generic": false
            },
            {
                "nid": "Zoya",
                "team": "player",
                "ai": "None",
                "roam_ai": null,
                "ai_group": "",
                "starting_position": [
                    9,
                    7
                ],
                "starting_traveler": null,
                "generic": false
            },
            {
                "nid": "Elwynn",
                "team": "player",
                "ai": "None",
                "roam_ai": null,
                "ai_group": "",
                "starting_position": [
                    8,
                    8
                ],
                "starting_traveler": null,
                "generic": false
            },
            {
                "nid": "Sloane",
                "team": "player",
                "ai": "None",
                "roam_ai": null,
                "ai_group": "",
                "starting_position": [
                    6,
                    8
                ],
                "starting_traveler": null,
                "generic": false
            },
            {
                "nid": "Quinley",
                "team": "player",
                "ai": "None",
                "roam_ai": null,
                "ai_group": "",
                "starting_position": [
                    8,
                    4
                ],
                "starting_traveler": null,
                "generic": false
            },
            {
                "nid": "Elspeth",
                "team": "player",
                "ai": "None",
                "roam_ai": null,
                "ai_group": "",
                "starting_position": [
                    10,
                    6
                ],
                "starting_traveler": null,
                "generic": false
            },
            {
                "nid": "Lamonte",
                "team": "player",
                "ai": "None",
                "roam_ai": null,
                "ai_group": "",
                "starting_position": [
                    8,
                    6
                ],
                "starting_traveler": null,
                "generic": false
            },
            {
                "nid": "Garvey",
                "team": "player",
                "ai": "None",
                "roam_ai": null,
                "ai_group": "",
                "starting_position": [
                    5,
                    6
                ],
                "starting_traveler": null,
                "generic": false
            },
            {
                "nid": "Orla",
                "team": "player",
                "ai": "None",
                "roam_ai": null,
                "ai_group": "",
                "starting_position": [
                    10,
                    4
                ],
                "starting_traveler": null,
                "generic": false
            },
            {
                "nid": "Ailsa",
                "team": "player",
                "ai": "None",
                "roam_ai": null,
                "ai_group": "",
                "starting_position": [
                    7,
                    4
                ],
                "starting_traveler": null,
                "generic": false
            },
            {
                "nid": "Corridon",
                "team": "player",
                "ai": "None",
                "roam_ai": null,
                "ai_group": "",
                "starting_position": [
                    10,
                    3
                ],
                "starting_traveler": null,
                "generic": false
            },
            {
                "nid": "Cathal",
                "team": "player",
                "ai": "None",
                "roam_ai": null,
                "ai_group": "",
                "starting_position": [
                    9,
                    3
                ],
                "starting_traveler": null,
                "generic": false
            },
            {
                "nid": "Cawthorne",
                "team": "enemy",
                "ai": "None",
                "roam_ai": null,
                "ai_group": "",
                "starting_position": [
                    8,
                    2
                ],
                "starting_traveler": null,
                "generic": false
            },
            {
                "nid": "101",
                "variant": null,
                "level": 5,
                "klass": "Archer",
                "faction": "Soldier",
                "starting_items": [
                    [
                        "Iron Bow",
                        false
                    ]
                ],
                "starting_skills": [],
                "team": "enemy",
                "ai": "None",
                "roam_ai": null,
                "ai_group": "",
                "starting_position": [
                    8,
                    12
                ],
                "starting_traveler": null,
                "generic": true
            },
            {
                "nid": "102",
                "variant": null,
                "level": 1,
                "klass": "ManDead",
                "faction": "Villager",
                "starting_items": [],
                "starting_skills": [],
                "team": "other",
                "ai": "None",
                "roam_ai": null,
                "ai_group": "",
                "starting_position": [
                    12,
                    4
                ],
                "starting_traveler": null,
                "generic": true
            },
            {
                "nid": "103",
                "variant": null,
                "level": 4,
                "klass": "Soldier",
                "faction": "Soldier",
                "starting_items": [
                    [
                        "Javelin",
                        false
                    ]
                ],
                "starting_skills": [],
                "team": "enemy",
                "ai": "None",
                "roam_ai": null,
                "ai_group": "",
                "starting_position": [
                    7,
                    12
                ],
                "starting_traveler": null,
                "generic": true
            },
            {
                "nid": "104",
                "variant": null,
                "level": 1,
                "klass": "Fighter",
                "faction": "Soldier",
                "starting_items": [
                    [
                        "Mace",
                        false
                    ]
                ],
                "starting_skills": [],
                "team": "enemy",
                "ai": "None",
                "roam_ai": null,
                "ai_group": "",
                "starting_position": [
                    6,
                    6
                ],
                "starting_traveler": null,
                "generic": true
            },
            {
                "nid": "105",
                "variant": null,
                "level": 7,
                "klass": "Mercenary",
                "faction": "Soldier",
                "starting_items": [
                    [
                        "Silencer",
                        false
                    ]
                ],
                "starting_skills": [],
                "team": "enemy",
                "ai": "None",
                "roam_ai": null,
                "ai_group": "",
                "starting_position": [
                    10,
                    12
                ],
                "starting_traveler": null,
                "generic": true
            },
            {
                "nid": "106",
                "variant": null,
                "level": 8,
                "klass": "Knight",
                "faction": "Soldier",
                "starting_items": [
                    [
                        "Iron Lance",
                        false
                    ]
                ],
                "starting_skills": [],
                "team": "enemy",
                "ai": "None",
                "roam_ai": null,
                "ai_group": "",
                "starting_position": [
                    11,
                    12
                ],
                "starting_traveler": null,
                "generic": true
            }
        ],
        "regions": [
            {
                "nid": "House",
                "region_type": "event",
                "position": [
                    9,
                    1
                ],
                "size": [
                    1,
                    1
                ],
                "sub_nid": "Visit",
                "condition": "True",
                "time_left": null,
                "only_once": true,
                "interrupt_move": false
            },
            {
                "nid": "Door1",
                "region_type": "event",
                "position": [
                    4,
                    2
                ],
                "size": [
                    1,
                    1
                ],
                "sub_nid": "Door",
                "condition": "unit.can_unlock(region)",
                "time_left": null,
                "only_once": true,
                "interrupt_move": false
            },
            {
                "nid": "New_Region",
                "region_type": "vision",
                "position": [
                    12,
                    8
                ],
                "size": [
                    1,
                    1
                ],
                "sub_nid": "3",
                "condition": "True",
                "time_left": null,
                "only_once": false,
                "interrupt_move": false
            }
        ],
        "unit_groups": [],
        "ai_groups": []
    }
]