[
    {
        "name": "Intro5",
        "trigger": null,
        "level_nid": "0",
        "condition": "True",
        "commands": [],
        "only_once": false,
        "priority": 20,
        "_source": [
            "# Still in market / pier",
            "add_weather;sunset",
            "location_card;A few hours later...",
            "move_cursor;0, 25;500",
            "wait;500",
            "music;Hulking Step of the Empire",
            "add_unit;Soldier (Temp);0, 25;fade;push;south",
            "add_unit;Soldier (Temp_1);1, 25;fade;push;south",
            "add_unit;Soldier (Temp_2);2, 25;fade;push;south",
            "move_unit;Soldier (Temp);2, 24;normal;push;FLAG(no_block);FLAG(no_follow)",
            "move_unit;Soldier (Temp_1);3, 23;normal;push;FLAG(no_block);FLAG(no_follow)",
            "move_unit;Soldier (Temp_2);4, 22;normal;push;FLAG(no_block);FLAG(no_follow)",
            "add_unit;Davenport (Davenport);0, 25;fade;push;south",
            "add_unit;Cawthorne (Cawthorne);1,25;fade;push;south",
            "add_unit;Soldier (Temp_3);2, 25;fade;push;south",
            "move_unit;Soldier (Temp_3);7, 22;normal;push;FLAG(no_block);FLAG(no_follow)",
            "move_unit;Davenport (Davenport);6, 23;normal;push;FLAG(no_block);no_follow",
            "move_unit;Cawthorne (Cawthorne);5, 23;normal;push;no_follow",
            "wait;500",
            "multi_add_portrait;Cawthorne;Left;Davenport;Right",
            "# At sunset the enemy empire invades the town, there's a brief convo between Ch5 boss and Ch4 boss",
            "speak;Cawthorne;[filler]",
            "speak;Davenport;[Filler]",
            "multi_remove_portrait;Cawthorne;Davenport",
            "transition;close;500",
            "remove_all_units",
            "# Plaza",
            "change_tilemap;Ch2",
            "add_weather;sunset",
            "show_layer;Boxes",
            "move_cursor;0, 13;FLAG(immediate)",
            "transition;open;500",
            "wait;250",
            "add_unit;Brassfield (Brassfield);0, 13;fade;push;west",
            "add_unit;Emberson (Emberson);0, 12;fade;push;west",
            "add_unit;Soldier (Temp_7);0, 11;fade;push;west",
            "add_unit;Soldier (Temp_8);0, 13;fade;push;west",
            "move_unit;Brassfield (Brassfield);6, 13;normal;push;FLAG(no_block);FLAG(no_follow)",
            "move_unit;Emberson (Emberson);6, 12;normal;push;FLAG(no_block);FLAG(no_follow)",
            "move_unit;Soldier (Temp_7);4, 11;normal;push;FLAG(no_block);FLAG(no_follow)",
            "move_unit;Soldier (Temp_8);5, 12;normal;push;FLAG(no_follow)",
            "wait;500",
            "multi_add_portrait;Brassfield;Left;Emberson;Right",
            "# Brief convo btween Ch 2 and Ch 3 bosses",
            "speak;Emberson;[Filler]",
            "speak;Brassfield;[Filler]",
            "multi_remove_portrait;Brassfield;Emberson",
            "transition;close;500",
            "remove_all_units",
            "# Residential District",
            "change_tilemap;Ch1",
            "add_weather;sunset",
            "move_cursor;10, 0;FLAG(immediate)",
            "transition;open;500",
            "add_unit;Soldier (Temp_9);6, 0;fade;push;west",
            "add_unit;Ackerman (Ackerman);7, 0;fade;push;west",
            "add_unit;Soldier (Temp_11);8, 0;fade;push;west",
            "add_unit;Soldier (Temp_12);9, 0;fade;push;west",
            "move_unit;Soldier (Temp_9);6, 2;normal;push;FLAG(no_block);FLAG(no_follow)",
            "move_unit;Ackerman (Ackerman);8, 2;normal;push;FLAG(no_block);FLAG(no_follow)",
            "move_unit;Soldier (Temp_11);7, 3;normal;push;FLAG(no_block);FLAG(no_follow)",
            "move_unit;Soldier (Temp_12);9, 3;normal;push;FLAG(no_follow)",
            "wait;500",
            "multi_add_portrait;Ackerman;Right;SoldierRed;Left",
            "# Ch 1 boss talks to his mooks, ransack n whatnot",
            "speak;Ackerman;[filler]",
            "speak;SoldierRed;[filler]",
            "multi_remove_portrait;Ackerman;SoldierRed",
            "wait;250",
            "move_unit;Ackerman (Ackerman);13, 11;normal;push;FLAG(no_block);FLAG(no_follow)",
            "move_unit;Soldier (Temp_11);10, 10;normal;push;FLAG(no_block);FLAG(no_follow)",
            "move_unit;Soldier (Temp_12);16, 5;normal;push;FLAG(no_block);FLAG(no_follow)",
            "move_unit;Soldier (Temp_9);2, 1;normal;push",
            "wait;250",
            "flicker_cursor;2, 1",
            "remove_unit;Soldier (Temp_9);immediate",
            "wait;250",
            "transition;close;500",
            "remove_all_units",
            "# School",
            "change_tilemap;School",
            "add_weather;sunset",
            "show_layer;Mid",
            "add_unit;Elwynn (Elwynn);10, 1;immediate",
            "add_unit;Alpin (Alpin);11, 3;immediate",
            "add_unit;Carlin (Carlin);12, 4;immediate",
            "add_unit;Shayla (Shayla);10, 4;immediate",
            "add_unit;Zoya (Zoya);9, 3;immediate",
            "add_unit;Kid_5 (Kid_5);8, 4;immediate",
            "transition;open;500",
            "multi_add_portrait;Elwynn;Right;Alpin;FarLeft;Carlin;MidLeft",
            "# Back at the school we're finally at combat training so the kids have their weapons",
            "# Enemy soldier shows up and murders the dumb kid named [whatever] who forgot to bring his weapon",
            "# The 4 remaining students and their teacher leave the school and see their town is being raided",
            "speak;Elwynn;Filler.",
            "multi_remove_portrait;Elwynn;Alpin;Carlin",
            "add_unit;Soldier (Temp_9);7, 9;fade;push;south",
            "move_unit;Soldier (Temp_9);7, 4;normal;push;120",
            "interact_unit;Soldier (Temp_9);Villager (Kid_5);crit1,end;Iron Axe (Iron Axe);force_no_animation",
            "add_portrait;SoldierRed;Left",
            "speak;SoldierRed;FILLER!",
            "remove_portrait;SoldierRed",
            "wait;250",
            "move_unit;Alpin (Alpin);8, 4;normal;push;60",
            "interact_unit;Alpin (Alpin);Soldier (Temp_9);crit1,end;Iron Sword (Iron Sword);force_no_animation",
            "add_portrait;Alpin;Right",
            "speak;Alpin;FILLER!?!?!",
            "remove_portrait;Alpin",
            "wait;250",
            "move_unit;Alpin (Alpin);7, 9;normal;stack;FLAG(no_block)",
            "move_unit;Carlin (Carlin);7, 9;normal;stack;FLAG(no_block)",
            "move_unit;Shayla (Shayla);7, 9;normal;stack;FLAG(no_block)",
            "move_unit;Zoya (Zoya);7, 9;normal;stack;FLAG(no_block)",
            "move_unit;Elwynn (Elwynn);7, 9;normal;stack",
            "remove_unit;Alpin (Alpin);fade;south",
            "remove_unit;Carlin (Carlin);fade;south",
            "remove_unit;Shayla (Shayla);fade;south",
            "remove_unit;Zoya (Zoya);fade;south",
            "remove_unit;Elwynn (Elwynn);fade;south",
            "transition;close;250",
            "remove_all_units",
            "# School",
            "change_tilemap;Ch1",
            "add_region;Escape;13, 11;4, 1;event;Escape",
            "add_weather;sunset",
            "add_group;Enemy1;Enemy1;immediate",
            "# Add enemies",
            "transition;open;250",
            "add_unit;Elwynn (Elwynn);2, 1;fade;stack;north",
            "add_unit;Alpin (Alpin);2, 1;fade;stack;north",
            "add_unit;Carlin (Carlin);2, 1;fade;stack;north",
            "add_unit;Shayla (Shayla);2, 1;fade;stack;north",
            "add_unit;Zoya (Zoya);2, 1;fade;stack;north",
            "sound;Unlock",
            "show_layer;TopLeft",
            "move_unit;Alpin (Alpin);3, 3;normal;push;FLAG(no_block)",
            "move_unit;Carlin (Carlin);1, 3;normal;push;FLAG(no_block)",
            "move_unit;Shayla (Shayla);2, 4;normal;push;FLAG(no_block)",
            "move_unit;Zoya (Zoya);4, 2;normal;push;FLAG(no_block)",
            "move_unit;Elwynn (Elwynn);2, 2;normal;push",
            "add_portrait;Alpin;Left",
            "# Hero Time :Sunglasses:",
            "# And by that I mean the gang needs to GTFO.",
            "# Shayla, Carlin, and Zoya mention they live close to the school.",
            "speak;Alpin;Filler!",
            "remove_portrait;Alpin",
            "change_team;Alpin (Alpin);player",
            "change_team;Carlin (Carlin);player",
            "change_team;Shayla (Shayla);player",
            "change_team;Zoya (Zoya);player",
            "change_team;Elwynn (Elwynn);player",
            "add_region;House1;5, 8;1, 1;event;Visit;FLAG(only_once)",
            "add_region;House2;9, 8;1, 1;event;Visit;FLAG(only_once)",
            "add_region;House3;14, 4;1, 1;event;Visit;FLAG(only_once)",
            "add_region;Escape;13, 11;1, 4;event;Escape"
        ]
    }
]