[
    {
        "name": "Barrel5",
        "trigger": "unit_death",
        "level_nid": "1",
        "condition": "unit.nid == \"Barrel_5\"",
        "commands": [],
        "only_once": true,
        "priority": 20,
        "_source": [
            "# Show destruction anim",
            "map_anim;Snag;{position}",
            "# Show the new layer",
            "show_layer;Box5"
        ]
    }
]