[
    {
        "name": "Chest2",
        "trigger": "Chest",
        "level_nid": "2",
        "condition": "region.nid == 'Chest2'",
        "commands": [],
        "only_once": false,
        "priority": 20,
        "_source": [
            "sound;Unlock",
            "show_layer;Right",
            "give_item;{unit};The Reclaimer (TheReclaimer)",
            "add_portrait;{unit};Left",
            "speak;{unit};Got the other thing!",
            "give_exp;{unit};10",
            "has_traded;{unit}",
            "inc_game_var;GotReclaimer;1"
        ]
    }
]