[
    {
        "name": "FightEmberson",
        "trigger": "combat_start",
        "level_nid": "2",
        "condition": "(unit.nid == \"Emberson\" and unit2.team == 'player') or (unit2.nid == \"Emberson\" and unit.team == 'player')",
        "commands": [],
        "only_once": false,
        "priority": 20,
        "_source": [
            "add_portrait;Emberson;Left",
            "speak;Emberson;Wait a minute!{br}Wh-who are you?",
            "remove_portrait;Emberson"
        ]
    }
]