[
    {
        "name": "House2Garvey",
        "trigger": "Visit",
        "level_nid": "3",
        "condition": "region.nid == 'House2' and unit.nid == 'Garvey'",
        "commands": [],
        "only_once": true,
        "priority": 20,
        "_source": [
            "transition;Close",
            "change_background;House",
            "transition;Open",
            "add_portrait;Woman1;Left",
            "add_portrait;Garvey;Right",
            "speak;Woman1;Hi Garvey!",
            "multi_remove_portrait;Woman1;Garvey",
            "transition;Close;1000;255, 255, 255",
            "# Flashback",
            "# Add music",
            "change_background;House",
            "transition;open;500;255, 255, 255",
            "add_portrait;Woman1;Left",
            "add_portrait;Garvey;Right",
            "speak;Woman1;Flashback!",
            "multi_remove_portrait;Woman1;Garvey",
            "transition;close",
            "change_background",
            "transition;Open",
            "give_item;Garvey;Rancor (Rancor)",
            "give_exp;Garvey;40",
            "show_layer;Right",
            "has_traded;Garvey"
        ]
    }
]