[
    {
        "name": "Intro",
        "trigger": "level_start",
        "level_nid": "3",
        "condition": "True",
        "commands": [],
        "only_once": false,
        "priority": 20,
        "_source": [
            "# FOR TESTING ONLY",
            "game_var;LeodDead;0",
            "# IN CASE I DONT SEE THE FIRST COMMENT",
            "level_var;DeadPlayers;0",
            "game_var;Davenport;0",
            "game_var;LeodDead;0",
            "add_weather;sunset",
            "change_background;Town",
            "transition;open",
            "multi_add_portrait;Elspeth;FarLeft;Elwynn;MidLeft;Quinley;MidRight;Sloane;FarRight",
            "# The party get to the market/pier in the early hours of the morning.",
            "# Alpin and Lamonte/Garvey point out visitable houses.",
            "speak;Elspeth;Filler!",
            "remove_portrait;Quinley",
            "remove_portrait;Sloane",
            "add_portrait;Alpin;FarRight",
            "speak;Alpin;My house!",
            "if;{v:LeodDead} == 0",
            "add_portrait;Lamonte;MidRight",
            "speak;Lamonte;Leod's house!",
            "remove_portrait;Lamonte",
            "end",
            "if;{v:LeodDead} == 1",
            "add_portrait;Garvey;MidRight",
            "speak;Garvey;Leod's house!",
            "remove_portrait;Garvey",
            "end",
            "add_portrait;Zoya;MidRight",
            "speak;Zoya;filler",
            "remove_portrait;Zoya",
            "transition;close",
            "move_cursor;21, 0",
            "change_background",
            "add_unit;Orla (Orla);12, 14;immediate",
            "add_unit;Ailsa (Ailsa);13, 15;immediate",
            "add_unit;Corridon (Corridon);13, 14;immediate",
            "add_unit;Soldier (101);14, 3;immediate",
            "add_unit;Soldier (102);16, 3;immediate",
            "add_unit;Soldier (103);19, 3;immediate",
            "add_unit;Soldier (104);13, 5;immediate",
            "add_unit;Soldier (105);18, 5;immediate",
            "add_unit;Soldier (106);20, 6;immediate",
            "add_unit;Soldier (107);14, 9;immediate",
            "add_unit;Soldier (108);18, 8;immediate",
            "add_unit;Soldier (109);11, 15;immediate",
            "add_unit;Soldier (110);12, 12;immediate",
            "add_unit;Soldier (111);13, 17;immediate",
            "transition;open",
            "add_unit;Alpin (Alpin);16, 0;fade;push;north",
            "add_unit;Elspeth (Elspeth);17, 0;fade;push;north",
            "add_unit;Sloane (Sloane);18, 0;fade;push;north",
            "add_unit;Quinley (Quinley);19, 0;fade;push;north",
            "if;{v:LeodDead} == 0",
            "add_unit;Lamonte (Lamonte);20, 0;fade;push;north",
            "end",
            "if;{v:LeodDead} == 1",
            "add_unit;Garvey (Garvey);20, 0;fade;push;north",
            "end",
            "wait;250",
            "move_unit;Elspeth (Elspeth);17, 1;normal;FLAG(no_block);FLAG(no_follow)",
            "move_unit;Quinley (Quinley);19, 1;normal;FLAG(no_block);FLAG(no_follow)",
            "wait;250",
            "add_portrait;Elspeth;Left",
            "# Elspeth sees action on the pier. Ailsa, Orla, and Corridon are dispatching some mooks.",
            "speak;Elspeth;filler",
            "remove_portrait;Elspeth",
            "move_cursor;Ailsa (Ailsa)",
            "wait;250",
            "move_unit;Soldier (111);13, 16;normal;FLAG(no_follow)",
            "interact_unit;Soldier (111);Ailsa (Ailsa);miss1,crit2,end;force_no_animation",
            "wait;250",
            "multi_add_portrait;Orla;Left;Corridon;MidRight;Ailsa;FarRight",
            "speak;Corridon;Filler.",
            "multi_remove_portrait;Orla;Ailsa;Corridon",
            "move_unit;Orla (Orla);18, 4;normal;FLAG(no_block);FLAG(no_follow)",
            "move_unit;Ailsa (Ailsa);20, 3;normal;FLAG(no_block);FLAG(no_follow)",
            "move_unit;Corridon (Corridon);17, 3;normal",
            "wait;250",
            "change_team;Orla (Orla);player",
            "change_team;Ailsa (Ailsa);player",
            "change_team;Corridon (Corridon);player",
            "multi_add_portrait;Orla;FarLeft;Ailsa;MidLeft;Corridon;MidRight;Elspeth;FarRight",
            "# Orla, Ailsa, and Corridon join the party. The group comes to terms with the fact that the town may be a lost cause at this point and they need to get out of here.",
            "speak;Orla;Filler!",
            "speak;Corridon;Enemies coming!",
            "multi_remove_portrait;Orla;Ailsa;Corridon;Elspeth",
            "move_unit;Orla (Orla);16, 2;normal;FLAG(no_block);FLAG(no_follow)",
            "move_unit;Ailsa (Ailsa);18, 2;normal;FLAG(no_block);FLAG(no_follow)",
            "move_unit;Corridon (Corridon);20, 2;normal",
            "#Add enemies",
            "#Music",
            "move_cursor;Orla (Orla)",
            "flicker_cursor;Orla (Orla)",
            "add_portrait;Orla;Right",
            "speak;Orla;filler",
            "remove_portrait;Orla",
            "wait;250",
            "move_cursor;16, 8",
            "flicker_cursor;16, 8",
            "transition;close",
            "remove_unit;Soldier (101)",
            "remove_unit;Soldier (102)",
            "remove_unit;Soldier (103)",
            "remove_unit;Soldier (104)",
            "remove_unit;Soldier (105)",
            "remove_unit;Soldier (106)",
            "remove_unit;Soldier (107)",
            "remove_unit;Soldier (108)",
            "remove_unit;Soldier (109)",
            "remove_unit;Soldier (110)",
            "change_background;House",
            "transition;open",
            "add_portrait;Cawthorne;Right",
            "# The Ch 5 boss who went to the tavern had a fun night of slaughtering the tavern goers and drinking but thinks it's soon time to go check on his army.",
            "# He's going to spawn a few turns in as a super boss from the tavern (like the black knight in that PoR chapter)",
            "speak;Cawthorne;Filler!",
            "remove_portrait;Cawthorne",
            "transition;close",
            "change_background",
            "move_cursor;21, 0",
            "transition;open",
            "prep;1"
        ]
    }
]