[
    {
        "name": "Lose2",
        "trigger": "unit_death",
        "level_nid": "3",
        "condition": "True",
        "commands": [],
        "only_once": false,
        "priority": 20,
        "_source": [
            "if;unit.team == 'player' and game.get_player_units() == 0",
            "alert;You have lost your only remaining party member.",
            "lose_game",
            "end"
        ]
    }
]