[
    {
        "name": "House2Ailsa",
        "trigger": "Visit",
        "level_nid": "4",
        "condition": "region.nid == 'House2' and unit.nid == 'Ailsa'",
        "commands": [],
        "only_once": true,
        "priority": 20,
        "_source": [
            "transition;Close",
            "change_background;House",
            "transition;Open",
            "add_portrait;Woman1;Left",
            "add_portrait;Ailsa;Right",
            "speak;Woman1;Hi Ailsa!",
            "multi_remove_portrait;Woman1;Ailsa",
            "transition;Close;1000;255, 255, 255",
            "# Flashback",
            "# Add music",
            "change_background;House",
            "transition;open;500;255, 255, 255",
            "add_portrait;Woman1;Left",
            "add_portrait;Ailsa;Right",
            "speak;Woman1;Flashback!",
            "multi_remove_portrait;Woman1;Ailsa",
            "transition;close",
            "change_background",
            "transition;Open",
            "give_item;Ailsa;Enervating Axe (EnervatingAxe)",
            "give_exp;Ailsa;40",
            "show_layer;Right",
            "has_traded;Ailsa"
        ]
    }
]