[
    {
        "name": "Lose",
        "trigger": "unit_death",
        "level_nid": "4",
        "condition": "True",
        "commands": [],
        "only_once": false,
        "priority": 20,
        "_source": [
            "if;unit.team == 'player'",
            "inc_level_var;DeadPlayers;1",
            "end",
            "if;{v:DeadPlayers} == 4",
            "alert;You have lost too many members of your party.",
            "lose_game",
            "end"
        ]
    }
]