[
    {
        "name": "SkillZoya",
        "trigger": null,
        "level_nid": null,
        "condition": "True",
        "commands": [],
        "only_once": false,
        "priority": 20,
        "_source": [
            "remove_skill;Zoya (Zoya);Trip (Trip);FLAG(no_banner)",
            "give_skill;Zoya (Zoya);Trip (TripDisplay);FLAG(no_banner)"
        ]
    }
]