[
    {
        "nid": "BanditEmblem",
        "subicon_dict": {}
    },
    {
        "nid": "BlankEmblem",
        "subicon_dict": {}
    },
    {
        "nid": "ConfederacyEmblem",
        "subicon_dict": {}
    },
    {
        "nid": "EmpireEmblem",
        "subicon_dict": {}
    },
    {
        "nid": "KnightEmblem",
        "subicon_dict": {
            "KnightEmblem 0, 0": [
                0,
                0
            ]
        }
    },
    {
        "nid": "MonsterEmblem",
        "subicon_dict": {}
    },
    {
        "nid": "NeutralEmblem",
        "subicon_dict": {}
    },
    {
        "nid": "ResistanceEmblem",
        "subicon_dict": {}
    },
    {
        "nid": "TemplarEmblem",
        "subicon_dict": {}
    }
]