[
    {
        "nid": "EvilCathal",
        "name": "Cathal",
        "desc": "Cathal text.",
        "variant": "",
        "level": 10,
        "klass": "Paladin",
        "tags": [],
        "bases": {
            "HP": 25,
            "STR": 8,
            "MAG": 0,
            "SKL": 8,
            "SPD": 9,
            "LCK": 20,
            "DEF": 5,
            "RES": 4,
            "CON": 11,
            "MOV": 8
        },
        "growths": {
            "HP": 0,
            "STR": 0,
            "MAG": 0,
            "SKL": 0,
            "SPD": 0,
            "LCK": 0,
            "DEF": 0,
            "RES": 0,
            "CON": 0,
            "MOV": 0
        },
        "stat_cap_modifiers": {
            "CON": 0,
            "LCK": 0,
            "MOV": 0,
            "MAG": 0,
            "HP": 0,
            "STR": 0,
            "DEF": 0,
            "RES": 0,
            "SPD": 0,
            "SKL": 0
        },
        "starting_items": [
            [
                "TheReclaimer",
                false
            ]
        ],
        "learned_skills": [
            [
                1,
                "DivineBlessing"
            ]
        ],
        "unit_notes": [],
        "wexp_gain": {
            "Sword": [
                false,
                41,
                41
            ],
            "Lance": [
                false,
                41,
                41
            ],
            "Axe": [
                false,
                0,
                41
            ],
            "Bow": [
                false,
                0,
                41
            ],
            "Staff": [
                false,
                0,
                41
            ],
            "Light": [
                false,
                0,
                41
            ],
            "Anima": [
                false,
                0,
                41
            ],
            "Dark": [
                false,
                0,
                41
            ],
            "Default": [
                false,
                0,
                41
            ]
        },
        "alternate_classes": [],
        "portrait_nid": "EvilCathal",
        "affinity": "Dark",
        "fields": []
    }
]