[
    "Villager",
    "Pupil",
    "Journeyman",
    "Recruit",
    "Myrmidon",
    "Mercenary",
    "Knight",
    "Soldier",
    "SoldierLamonte",
    "Lancer",
    "CavalierCathal",
    "Cavalier",
    "Archer",
    "ArcherGarvey",
    "Hunter",
    "Pegasi",
    "Dracoknight",
    "Griffoknight",
    "Thief",
    "Fighter",
    "FighterOrla",
    "Pirate",
    "PirateAilsa",
    "Monk",
    "Cleric",
    "ClericElspeth",
    "Blacksmith",
    "Mage",
    "MageQuinley",
    "Shaman",
    "Warrior",
    "Hero",
    "Sage",
    "Paladin",
    "PaladinShallcross",
    "Great_Knight",
    "General",
    "GeneralKing",
    "Bishop",
    "Citizen",
    "Invisible",
    "Villager (F)",
    "Villager (B)",
    "Villager (F) (Girl) Standing {IS}",
    "Horse Standing 16x16 {L95}",
    "Dead Villager (M) (Man)",
    "Dead Villager (M) (Man) 2",
    "Dead Villager (F) (Woman)",
    "Dead Villager (F) (Woman) 2"
]