[
    {
        "nid": "AngelFeather",
        "name": "AngelFeather",
        "desc": "+5% Growths.",
        "icon_nid": "Skills",
        "icon_index": [
            0,
            0
        ],
        "components": [
            [
                "growth_change",
                [
                    [
                        "HP",
                        5
                    ],
                    [
                        "STR",
                        5
                    ],
                    [
                        "MAG",
                        5
                    ],
                    [
                        "SKL",
                        5
                    ],
                    [
                        "SPD",
                        5
                    ],
                    [
                        "LCK",
                        5
                    ],
                    [
                        "DEF",
                        5
                    ],
                    [
                        "RES",
                        5
                    ]
                ]
            ],
            [
                "hidden",
                null
            ]
        ]
    }
]