[
    {
        "nid": "Bungle",
        "name": "Bungle",
        "desc": "Always attacks second.",
        "icon_nid": "Skills",
        "icon_index": [
            0,
            0
        ],
        "components": [
            [
                "skill_before_combat",
                {
                    "skill": "Vantage",
                    "recipient": "target",
                    "allegiance": "enemy"
                }
            ],
            [
                "class_skill",
                null
            ]
        ]
    }
]