[
    {
        "nid": "DistantCounter",
        "name": "Distant Counter",
        "desc": "Unit can counter from any distance.",
        "icon_nid": "Skills",
        "icon_index": [
            0,
            0
        ],
        "components": [
            [
                "class_skill",
                null
            ],
            [
                "distant_counter",
                null
            ]
        ]
    }
]