[
    {
        "nid": "DivineBlessing",
        "name": "Divine Blessing",
        "desc": "Can only be damaged by weapons blessed by a diety.",
        "icon_nid": "Skills",
        "icon_index": [
            0,
            0
        ],
        "components": [
            [
                "class_skill",
                null
            ],
            [
                "dynamic_resist",
                "0 if unit2.get_weapon().name  == 'TheReclaimer' else 1000"
            ]
        ]
    }
]