[
    {
        "nid": "HeartofFrost",
        "name": "Heart Of Frost",
        "desc": "+1 DEF/RES. Ice affinity only.",
        "icon_nid": null,
        "icon_index": [
            0,
            0
        ],
        "components": [
            [
                "condition",
                "unit.affinity == 'Ice'"
            ],
            [
                "stat_change",
                [
                    [
                        "DEF",
                        1
                    ],
                    [
                        "RES",
                        1
                    ]
                ]
            ]
        ]
    }
]