[
    {
        "nid": "HeartofLightning",
        "name": "Heart Of Lightning",
        "desc": "+10 Crit. Thunder affinity only.",
        "icon_nid": null,
        "icon_index": [
            0,
            0
        ],
        "components": [
            [
                "condition",
                "unit.affinity == 'Thunder'"
            ],
            [
                "crit",
                10
            ]
        ]
    }
]