[
    {
        "nid": "Miracle",
        "name": "True Miracle",
        "desc": "Unit's HP cannot fall below 1 for 1 turn. Completely recover health next turn.",
        "icon_nid": null,
        "icon_index": [
            0,
            0
        ],
        "components": [
            [
                "TrueMiracle",
                null
            ],
            [
                "time",
                1
            ],
            [
                "regeneration",
                1.0
            ]
        ]
    }
]