[
    {
        "nid": "Trip",
        "name": "Trip",
        "desc": "Free action. Sets target's move to 0 for 1 turn.",
        "icon_nid": "Skills",
        "icon_index": [
            0,
            0
        ],
        "components": [
            [
                "ability",
                "Trip"
            ],
            [
                "class_skill",
                null
            ]
        ]
    }
]