[
    {
        "nid": "Vantage",
        "name": "Vantage",
        "desc": "This unit always attacks first",
        "icon_nid": "Skills",
        "icon_index": [
            0,
            0
        ],
        "components": [
            [
                "vantage",
                null
            ],
            [
                "lost_on_end_combat2",
                {
                    "lost_on_self": true,
                    "lost_on_ally": true,
                    "lost_on_enemy": true,
                    "lost_on_splash": true
                }
            ]
        ]
    }
]