[
    {
        "nid": "Entangle",
        "name": "Entangle",
        "desc": "Lowers target's Avoid by 15 for 1 turn.",
        "icon_nid": "Anima",
        "icon_index": [
            0,
            0
        ],
        "components": [
            [
                "weapon",
                null
            ],
            [
                "target_enemy",
                null
            ],
            [
                "min_range",
                1
            ],
            [
                "max_range",
                2
            ],
            [
                "damage",
                2
            ],
            [
                "hit",
                5
            ],
            [
                "level_exp",
                null
            ],
            [
                "weapon_type",
                "Anima"
            ],
            [
                "map_hit_add_blend",
                [
                    85,
                    85,
                    0
                ]
            ],
            [
                "magic",
                null
            ],
            [
                "unrepairable",
                null
            ],
            [
                "status_on_hit",
                "Entangled"
            ],
            [
                "crit",
                0
            ],
            [
                "battle_cast_anim",
                "Fire"
            ]
        ]
    }
]