[
    {
        "nid": "Evanesce",
        "name": "Evanesce",
        "desc": "Ignores RES and can't miss. Can't target bosses.",
        "icon_nid": "Dark",
        "icon_index": [
            0,
            4
        ],
        "components": [
            [
                "weapon",
                null
            ],
            [
                "target_enemy",
                null
            ],
            [
                "min_range",
                1
            ],
            [
                "max_equation_range",
                "MAGIC_RANGE"
            ],
            [
                "level_exp",
                null
            ],
            [
                "weapon_type",
                "Dark"
            ],
            [
                "map_hit_add_blend",
                [
                    72,
                    0,
                    65
                ]
            ],
            [
                "magic",
                null
            ],
            [
                "unrepairable",
                null
            ],
            [
                "uses",
                1
            ],
            [
                "uses_options",
                [
                    [
                        "LoseUsesOnMiss (T/F)",
                        "F",
                        "Lose uses even on miss"
                    ],
                    [
                        "OneLossPerCombat (T/F)",
                        "F",
                        "Doubling doesn't cost extra uses"
                    ]
                ]
            ],
            [
                "wexp",
                2
            ],
            [
                "eval_target_restrict_2",
                "'Boss' not in target.tags"
            ],
            [
                "cannot_be_countered",
                null
            ],
            [
                "battle_cast_anim",
                "Flux"
            ],
            [
                "alternate_resist_formula",
                "ZERO"
            ],
            [
                "alternate_damage_formula",
                "TWENTYFIVE"
            ]
        ]
    }
]