[
    {
        "nid": "HeartOfGales",
        "name": "<orange>Heart Of Gales</orange>",
        "desc": "+1 SPD. Wind affinity only.",
        "icon_nid": "Accessory",
        "icon_index": [
            0,
            2
        ],
        "components": [
            [
                "status_on_hold",
                "HeartofGales"
            ],
            [
                "text_color",
                "orange"
            ]
        ]
    }
]