[
    {
        "nid": "Iron Bow",
        "name": "Iron Bow",
        "desc": "",
        "icon_nid": "Bow",
        "icon_index": [
            0,
            0
        ],
        "components": [
            [
                "weapon",
                null
            ],
            [
                "target_enemy",
                null
            ],
            [
                "min_range",
                2
            ],
            [
                "max_range",
                2
            ],
            [
                "damage",
                2
            ],
            [
                "hit",
                10
            ],
            [
                "level_exp",
                null
            ],
            [
                "weapon_type",
                "Bow"
            ],
            [
                "effective_damage",
                {
                    "effective_tags": [
                        "Flying"
                    ],
                    "effective_multiplier": 2.0,
                    "effective_bonus_damage": 0,
                    "show_effectiveness_flash": true
                }
            ],
            [
                "crit",
                0
            ],
            [
                "eval_warning",
                "'Flying' in unit.tags"
            ]
        ]
    }
]