[
    {
        "nid": "Omnipotence",
        "name": "Omnipotence",
        "desc": "Effective against caster units. SPD -1.",
        "icon_nid": "Light",
        "icon_index": [
            0,
            2
        ],
        "components": [
            [
                "weapon",
                null
            ],
            [
                "target_enemy",
                null
            ],
            [
                "level_exp",
                null
            ],
            [
                "damage",
                3
            ],
            [
                "hit",
                0
            ],
            [
                "weapon_type",
                "Light"
            ],
            [
                "magic",
                null
            ],
            [
                "uses",
                8
            ],
            [
                "uses_options",
                [
                    [
                        "LoseUsesOnMiss (T/F)",
                        "F",
                        "Lose uses even on miss"
                    ],
                    [
                        "OneLossPerCombat (T/F)",
                        "F",
                        "Doubling doesn't cost extra uses"
                    ]
                ]
            ],
            [
                "crit",
                20
            ],
            [
                "wexp",
                2
            ],
            [
                "min_range",
                1
            ],
            [
                "max_range",
                2
            ],
            [
                "map_hit_add_blend",
                [
                    255,
                    255,
                    0
                ]
            ],
            [
                "unrepairable",
                null
            ],
            [
                "effective_damage",
                {
                    "effective_tags": [
                        "Caster"
                    ],
                    "effective_multiplier": 2.0,
                    "effective_bonus_damage": 0,
                    "show_effectiveness_flash": true
                }
            ],
            [
                "status_on_equip",
                "SPD1"
            ],
            [
                "eval_warning",
                "'Caster' in unit.tags"
            ],
            [
                "battle_cast_anim",
                "Glimmer"
            ]
        ]
    }
]