[
    {
        "nid": "SapphireLance",
        "name": "Sapphire Lance",
        "desc": "Doubles the weapon triangle. SPD -1.",
        "icon_nid": "Lance",
        "icon_index": [
            0,
            6
        ],
        "components": [
            [
                "weapon",
                null
            ],
            [
                "target_enemy",
                null
            ],
            [
                "level_exp",
                null
            ],
            [
                "damage",
                3
            ],
            [
                "hit",
                -5
            ],
            [
                "weapon_type",
                "Lance"
            ],
            [
                "uses",
                8
            ],
            [
                "uses_options",
                [
                    [
                        "LoseUsesOnMiss (T/F)",
                        "F",
                        "Lose uses even on miss"
                    ],
                    [
                        "OneLossPerCombat (T/F)",
                        "F",
                        "Doubling doesn't cost extra uses"
                    ]
                ]
            ],
            [
                "wexp",
                2
            ],
            [
                "crit",
                10
            ],
            [
                "min_range",
                1
            ],
            [
                "max_range",
                1
            ],
            [
                "double_triangle",
                null
            ],
            [
                "status_on_equip",
                "SPD1"
            ],
            [
                "warning",
                null
            ]
        ]
    }
]