[
    {
        "nid": "ShiningBind",
        "name": "Shining Bind",
        "desc": "Petrifies target. Can't double. SPD -2.",
        "icon_nid": "Light",
        "icon_index": [
            0,
            3
        ],
        "components": [
            [
                "weapon",
                null
            ],
            [
                "target_enemy",
                null
            ],
            [
                "level_exp",
                null
            ],
            [
                "hit",
                5
            ],
            [
                "weapon_type",
                "Light"
            ],
            [
                "magic",
                null
            ],
            [
                "uses",
                4
            ],
            [
                "uses_options",
                [
                    [
                        "LoseUsesOnMiss (T/F)",
                        "F",
                        "Lose uses even on miss"
                    ],
                    [
                        "OneLossPerCombat (T/F)",
                        "F",
                        "Doubling doesn't cost extra uses"
                    ]
                ]
            ],
            [
                "map_hit_add_blend",
                [
                    255,
                    255,
                    0
                ]
            ],
            [
                "unrepairable",
                null
            ],
            [
                "status_on_hit",
                "Petrify"
            ],
            [
                "min_range",
                1
            ],
            [
                "max_range",
                2
            ],
            [
                "wexp",
                2
            ],
            [
                "no_double",
                null
            ],
            [
                "status_on_equip",
                "SPD2"
            ],
            [
                "battle_cast_anim",
                "Glimmer"
            ]
        ]
    }
]