[
    {
        "nid": "Swordreaver",
        "name": "Swordreaver",
        "desc": "Reverses the weapon triangle. SPD -1.",
        "icon_nid": "Axe",
        "icon_index": [
            0,
            5
        ],
        "components": [
            [
                "weapon",
                null
            ],
            [
                "target_enemy",
                null
            ],
            [
                "min_range",
                1
            ],
            [
                "max_range",
                1
            ],
            [
                "damage",
                4
            ],
            [
                "hit",
                -5
            ],
            [
                "crit",
                10
            ],
            [
                "uses",
                8
            ],
            [
                "uses_options",
                [
                    [
                        "LoseUsesOnMiss (T/F)",
                        "F",
                        "Lose uses even on miss"
                    ],
                    [
                        "OneLossPerCombat (T/F)",
                        "F",
                        "Doubling doesn't cost extra uses"
                    ]
                ]
            ],
            [
                "level_exp",
                null
            ],
            [
                "weapon_type",
                "Axe"
            ],
            [
                "reaver",
                null
            ],
            [
                "wexp",
                2
            ],
            [
                "status_on_equip",
                "SPD1"
            ],
            [
                "eval_warning",
                "target.get_weapon() and item_system.weapon_type(target, target.get_weapon()) == 'Sword'"
            ]
        ]
    }
]