[
    {
        "nid": "Wind",
        "name": "Wind",
        "desc": "Effective against flying units.",
        "icon_nid": "Anima",
        "icon_index": [
            0,
            3
        ],
        "components": [
            [
                "weapon",
                null
            ],
            [
                "target_enemy",
                null
            ],
            [
                "min_range",
                1
            ],
            [
                "max_range",
                2
            ],
            [
                "damage",
                2
            ],
            [
                "hit",
                10
            ],
            [
                "crit",
                5
            ],
            [
                "level_exp",
                null
            ],
            [
                "weapon_type",
                "Anima"
            ],
            [
                "map_hit_add_blend",
                [
                    0,
                    255,
                    127
                ]
            ],
            [
                "magic",
                null
            ],
            [
                "uses",
                8
            ],
            [
                "uses_options",
                [
                    [
                        "LoseUsesOnMiss (T/F)",
                        "F",
                        "Lose uses even on miss"
                    ],
                    [
                        "OneLossPerCombat (T/F)",
                        "F",
                        "Doubling doesn't cost extra uses"
                    ]
                ]
            ],
            [
                "unrepairable",
                null
            ],
            [
                "effective_damage",
                {
                    "effective_tags": [
                        "Flying"
                    ],
                    "effective_multiplier": 2.0,
                    "effective_bonus_damage": 0,
                    "show_effectiveness_flash": true
                }
            ],
            [
                "wexp",
                2
            ],
            [
                "eval_warning",
                "'Flying' in unit.tags"
            ],
            [
                "battle_cast_anim",
                "Wind"
            ]
        ]
    }
]