[
    {
        "nid": "Hero",
        "name": "Hero",
        "desc": "Seasoned veterans with remarkable skill.",
        "tier": 2,
        "movement_group": "Light Foot",
        "promotes_from": "Mercenary",
        "turns_into": [],
        "tags": [
            "Sword"
        ],
        "max_level": 10,
        "bases": {
            "HP": 12,
            "STR": 2,
            "MAG": 0,
            "SKL": 5,
            "SPD": 3,
            "LCK": 0,
            "DEF": 1,
            "RES": 0,
            "CON": 11,
            "MOV": 6
        },
        "growths": {
            "HP": 75,
            "STR": 30,
            "MAG": 5,
            "SKL": 30,
            "SPD": 20,
            "LCK": 15,
            "DEF": 20,
            "RES": 20,
            "CON": 0,
            "MOV": 0
        },
        "growth_bonus": {
            "HP": 0,
            "STR": 0,
            "MAG": 0,
            "SKL": 0,
            "SPD": 0,
            "LCK": 0,
            "DEF": 0,
            "RES": 0,
            "CON": 0,
            "MOV": 0
        },
        "promotion": {
            "HP": 4,
            "STR": 2,
            "MAG": 0,
            "SKL": 2,
            "SPD": 2,
            "LCK": 0,
            "DEF": 2,
            "RES": 2,
            "CON": 2,
            "MOV": -99
        },
        "max_stats": {
            "HP": 25,
            "STR": 10,
            "MAG": 10,
            "SKL": 10,
            "SPD": 10,
            "LCK": 10,
            "DEF": 10,
            "RES": 10,
            "CON": 25,
            "MOV": 15
        },
        "learned_skills": [],
        "wexp_gain": {
            "Sword": [
                2,
                11,
                251
            ],
            "Lance": [
                false,
                0,
                251
            ],
            "Axe": [
                2,
                1,
                251
            ],
            "Bow": [
                false,
                0,
                251
            ],
            "Staff": [
                false,
                0,
                251
            ],
            "Light": [
                false,
                0,
                251
            ],
            "Anima": [
                false,
                0,
                251
            ],
            "Dark": [
                false,
                0,
                251
            ],
            "Default": [
                false,
                0,
                251
            ]
        },
        "icon_nid": "Generic_Portrait_Vanguard",
        "icon_index": [
            0,
            0
        ],
        "map_sprite_nid": "Hero",
        "combat_anim_nid": "Hero",
        "fields": []
    }
]