[
    {
        "nid": "Mercenary",
        "name": "Mercenary",
        "desc": "Well-balanced professional soldiers-for-hire.",
        "tier": 1,
        "movement_group": "Light Foot",
        "promotes_from": null,
        "turns_into": [],
        "tags": [
            "Sword"
        ],
        "max_level": 10,
        "bases": {
            "HP": 9,
            "STR": 4,
            "MAG": 0,
            "SKL": 5,
            "SPD": 3,
            "LCK": 0,
            "DEF": 1,
            "RES": 0,
            "CON": 9,
            "MOV": 5
        },
        "growths": {
            "HP": 65,
            "STR": 20,
            "MAG": 0,
            "SKL": 25,
            "SPD": 15,
            "LCK": 0,
            "DEF": 10,
            "RES": 0,
            "CON": 0,
            "MOV": 0
        },
        "growth_bonus": {
            "HP": 0,
            "STR": 0,
            "MAG": 0,
            "SKL": 0,
            "SPD": 0,
            "LCK": 0,
            "DEF": 0,
            "RES": 0,
            "CON": 0,
            "MOV": 0
        },
        "promotion": {
            "HP": 0,
            "STR": 0,
            "MAG": 0,
            "SKL": 0,
            "SPD": 0,
            "LCK": 0,
            "DEF": 0,
            "RES": 0,
            "CON": 0,
            "MOV": 0
        },
        "max_stats": {
            "HP": 20,
            "STR": 10,
            "MAG": 10,
            "SKL": 10,
            "SPD": 10,
            "LCK": 10,
            "DEF": 10,
            "RES": 10,
            "CON": 20,
            "MOV": 15
        },
        "learned_skills": [],
        "wexp_gain": {
            "Sword": [
                true,
                1,
                251
            ],
            "Lance": [
                false,
                0,
                251
            ],
            "Axe": [
                false,
                0,
                251
            ],
            "Bow": [
                false,
                0,
                251
            ],
            "Staff": [
                false,
                0,
                251
            ],
            "Light": [
                false,
                0,
                251
            ],
            "Anima": [
                false,
                0,
                251
            ],
            "Dark": [
                false,
                0,
                251
            ],
            "Default": [
                false,
                0,
                251
            ]
        },
        "icon_nid": "Generic_Portrait_Mercenary",
        "icon_index": [
            0,
            0
        ],
        "map_sprite_nid": "Mercenary",
        "combat_anim_nid": "Mercenary",
        "fields": []
    }
]