[
    {
        "nid": "Paladin",
        "name": "Paladin",
        "desc": "Mounted knights with superior abilities.",
        "tier": 2,
        "movement_group": "Heavy Cav",
        "promotes_from": "Cavalier",
        "turns_into": [],
        "tags": [
            "Horse",
            "Mounted"
        ],
        "max_level": 10,
        "bases": {
            "HP": 23,
            "STR": 7,
            "MAG": 3,
            "SKL": 6,
            "SPD": 11,
            "LCK": 0,
            "DEF": 8,
            "CON": 11,
            "MOV": 8,
            "RES": 6
        },
        "growths": {
            "HP": 70,
            "STR": 25,
            "MAG": 12,
            "SKL": 35,
            "SPD": 25,
            "LCK": 10,
            "DEF": 12,
            "CON": 0,
            "MOV": 0,
            "RES": 25
        },
        "growth_bonus": {
            "HP": 0,
            "STR": 0,
            "MAG": 0,
            "SKL": 0,
            "SPD": 0,
            "LCK": 0,
            "DEF": 0,
            "CON": 0,
            "MOV": 0,
            "RES": 0
        },
        "promotion": {
            "HP": 2,
            "STR": 1,
            "MAG": 0,
            "SKL": 1,
            "SPD": 2,
            "LCK": 0,
            "DEF": 2,
            "CON": 2,
            "MOV": -99,
            "RES": 2
        },
        "max_stats": {
            "HP": 25,
            "STR": 10,
            "MAG": 10,
            "SKL": 10,
            "SPD": 10,
            "LCK": 10,
            "DEF": 10,
            "CON": 25,
            "MOV": 15,
            "RES": 10
        },
        "learned_skills": [],
        "wexp_gain": {
            "Sword": [
                true,
                11,
                251
            ],
            "Lance": [
                true,
                11,
                251
            ],
            "Axe": [
                false,
                0,
                251
            ],
            "Bow": [
                false,
                0,
                251
            ],
            "Staff": [
                false,
                0,
                251
            ],
            "Light": [
                false,
                0,
                251
            ],
            "Anima": [
                false,
                0,
                251
            ],
            "Dark": [
                false,
                0,
                251
            ],
            "Default": [
                false,
                0,
                251
            ]
        },
        "icon_nid": "Generic_Portrait_Paladin",
        "icon_index": [
            0,
            0
        ],
        "map_sprite_nid": "Paladin",
        "combat_anim_nid": "Paladin",
        "fields": []
    }
]