[
    [
        "New Palette_28",
        [
            [
                [
                    0,
                    0
                ],
                [
                    128,
                    160,
                    128
                ]
            ],
            [
                [
                    1,
                    0
                ],
                [
                    120,
                    96,
                    64
                ]
            ],
            [
                [
                    2,
                    0
                ],
                [
                    152,
                    128,
                    88
                ]
            ],
            [
                [
                    3,
                    0
                ],
                [
                    112,
                    72,
                    48
                ]
            ],
            [
                [
                    4,
                    0
                ],
                [
                    192,
                    128,
                    80
                ]
            ],
            [
                [
                    5,
                    0
                ],
                [
                    248,
                    192,
                    144
                ]
            ],
            [
                [
                    6,
                    0
                ],
                [
                    248,
                    248,
                    208
                ]
            ],
            [
                [
                    7,
                    0
                ],
                [
                    248,
                    248,
                    248
                ]
            ],
            [
                [
                    0,
                    1
                ],
                [
                    40,
                    40,
                    40
                ]
            ],
            [
                [
                    1,
                    1
                ],
                [
                    40,
                    72,
                    104
                ]
            ],
            [
                [
                    2,
                    1
                ],
                [
                    40,
                    112,
                    152
                ]
            ],
            [
                [
                    3,
                    1
                ],
                [
                    32,
                    192,
                    216
                ]
            ],
            [
                [
                    4,
                    1
                ],
                [
                    72,
                    88,
                    120
                ]
            ],
            [
                [
                    5,
                    1
                ],
                [
                    104,
                    136,
                    168
                ]
            ],
            [
                [
                    6,
                    1
                ],
                [
                    192,
                    224,
                    232
                ]
            ],
            [
                [
                    7,
                    1
                ],
                [
                    88,
                    64,
                    40
                ]
            ]
        ]
    ]
]