[
    [
        "New Palette_17",
        [
            [
                [
                    0,
                    0
                ],
                [
                    128,
                    160,
                    128
                ]
            ],
            [
                [
                    1,
                    0
                ],
                [
                    160,
                    96,
                    48
                ]
            ],
            [
                [
                    2,
                    0
                ],
                [
                    152,
                    104,
                    40
                ]
            ],
            [
                [
                    3,
                    0
                ],
                [
                    96,
                    40,
                    16
                ]
            ],
            [
                [
                    4,
                    0
                ],
                [
                    136,
                    64,
                    16
                ]
            ],
            [
                [
                    5,
                    0
                ],
                [
                    208,
                    176,
                    112
                ]
            ],
            [
                [
                    6,
                    0
                ],
                [
                    232,
                    232,
                    184
                ]
            ],
            [
                [
                    7,
                    0
                ],
                [
                    248,
                    248,
                    248
                ]
            ],
            [
                [
                    0,
                    1
                ],
                [
                    40,
                    40,
                    40
                ]
            ],
            [
                [
                    1,
                    1
                ],
                [
                    64,
                    88,
                    160
                ]
            ],
            [
                [
                    2,
                    1
                ],
                [
                    96,
                    144,
                    224
                ]
            ],
            [
                [
                    3,
                    1
                ],
                [
                    120,
                    200,
                    248
                ]
            ],
            [
                [
                    4,
                    1
                ],
                [
                    176,
                    224,
                    240
                ]
            ],
            [
                [
                    5,
                    1
                ],
                [
                    80,
                    104,
                    128
                ]
            ],
            [
                [
                    6,
                    1
                ],
                [
                    136,
                    144,
                    136
                ]
            ],
            [
                [
                    7,
                    1
                ],
                [
                    200,
                    208,
                    200
                ]
            ]
        ]
    ]
]