[
    [
        "New Palette_44",
        [
            [
                [
                    0,
                    0
                ],
                [
                    128,
                    160,
                    128
                ]
            ],
            [
                [
                    1,
                    0
                ],
                [
                    240,
                    160,
                    40
                ]
            ],
            [
                [
                    2,
                    0
                ],
                [
                    248,
                    248,
                    48
                ]
            ],
            [
                [
                    3,
                    0
                ],
                [
                    112,
                    72,
                    48
                ]
            ],
            [
                [
                    4,
                    0
                ],
                [
                    200,
                    128,
                    80
                ]
            ],
            [
                [
                    5,
                    0
                ],
                [
                    248,
                    192,
                    144
                ]
            ],
            [
                [
                    6,
                    0
                ],
                [
                    248,
                    248,
                    208
                ]
            ],
            [
                [
                    7,
                    0
                ],
                [
                    248,
                    248,
                    248
                ]
            ],
            [
                [
                    0,
                    1
                ],
                [
                    40,
                    40,
                    40
                ]
            ],
            [
                [
                    1,
                    1
                ],
                [
                    48,
                    56,
                    144
                ]
            ],
            [
                [
                    2,
                    1
                ],
                [
                    72,
                    112,
                    208
                ]
            ],
            [
                [
                    3,
                    1
                ],
                [
                    104,
                    192,
                    232
                ]
            ],
            [
                [
                    4,
                    1
                ],
                [
                    64,
                    96,
                    128
                ]
            ],
            [
                [
                    5,
                    1
                ],
                [
                    120,
                    152,
                    184
                ]
            ],
            [
                [
                    6,
                    1
                ],
                [
                    176,
                    208,
                    240
                ]
            ],
            [
                [
                    7,
                    1
                ],
                [
                    160,
                    96,
                    0
                ]
            ]
        ]
    ]
]