[
    [
        "New Palette_12",
        [
            [
                [
                    0,
                    0
                ],
                [
                    128,
                    160,
                    128
                ]
            ],
            [
                [
                    1,
                    0
                ],
                [
                    112,
                    96,
                    200
                ]
            ],
            [
                [
                    2,
                    0
                ],
                [
                    168,
                    160,
                    248
                ]
            ],
            [
                [
                    3,
                    0
                ],
                [
                    200,
                    192,
                    248
                ]
            ],
            [
                [
                    4,
                    0
                ],
                [
                    112,
                    72,
                    48
                ]
            ],
            [
                [
                    5,
                    0
                ],
                [
                    248,
                    192,
                    144
                ]
            ],
            [
                [
                    6,
                    0
                ],
                [
                    248,
                    248,
                    208
                ]
            ],
            [
                [
                    7,
                    0
                ],
                [
                    248,
                    248,
                    248
                ]
            ],
            [
                [
                    0,
                    1
                ],
                [
                    40,
                    40,
                    40
                ]
            ],
            [
                [
                    1,
                    1
                ],
                [
                    40,
                    40,
                    176
                ]
            ],
            [
                [
                    2,
                    1
                ],
                [
                    88,
                    136,
                    248
                ]
            ],
            [
                [
                    3,
                    1
                ],
                [
                    96,
                    216,
                    232
                ]
            ],
            [
                [
                    4,
                    1
                ],
                [
                    168,
                    248,
                    248
                ]
            ],
            [
                [
                    5,
                    1
                ],
                [
                    40,
                    120,
                    8
                ]
            ],
            [
                [
                    6,
                    1
                ],
                [
                    96,
                    200,
                    24
                ]
            ],
            [
                [
                    7,
                    1
                ],
                [
                    120,
                    248,
                    24
                ]
            ]
        ]
    ]
]