[
    [
        "New Palette_37",
        [
            [
                [
                    0,
                    0
                ],
                [
                    128,
                    160,
                    128
                ]
            ],
            [
                [
                    1,
                    0
                ],
                [
                    72,
                    144,
                    8
                ]
            ],
            [
                [
                    2,
                    0
                ],
                [
                    80,
                    232,
                    56
                ]
            ],
            [
                [
                    3,
                    0
                ],
                [
                    216,
                    248,
                    112
                ]
            ],
            [
                [
                    4,
                    0
                ],
                [
                    112,
                    72,
                    48
                ]
            ],
            [
                [
                    5,
                    0
                ],
                [
                    248,
                    192,
                    144
                ]
            ],
            [
                [
                    6,
                    0
                ],
                [
                    248,
                    248,
                    208
                ]
            ],
            [
                [
                    7,
                    0
                ],
                [
                    248,
                    248,
                    248
                ]
            ],
            [
                [
                    0,
                    1
                ],
                [
                    40,
                    40,
                    40
                ]
            ],
            [
                [
                    1,
                    1
                ],
                [
                    56,
                    56,
                    192
                ]
            ],
            [
                [
                    2,
                    1
                ],
                [
                    80,
                    128,
                    248
                ]
            ],
            [
                [
                    3,
                    1
                ],
                [
                    104,
                    232,
                    248
                ]
            ],
            [
                [
                    4,
                    1
                ],
                [
                    168,
                    248,
                    248
                ]
            ],
            [
                [
                    5,
                    1
                ],
                [
                    184,
                    216,
                    248
                ]
            ],
            [
                [
                    6,
                    1
                ],
                [
                    208,
                    176,
                    120
                ]
            ],
            [
                [
                    7,
                    1
                ],
                [
                    248,
                    232,
                    160
                ]
            ]
        ]
    ]
]