[
    [
        "New Palette_42",
        [
            [
                [
                    0,
                    0
                ],
                [
                    128,
                    160,
                    128
                ]
            ],
            [
                [
                    1,
                    0
                ],
                [
                    152,
                    96,
                    64
                ]
            ],
            [
                [
                    2,
                    0
                ],
                [
                    208,
                    136,
                    40
                ]
            ],
            [
                [
                    3,
                    0
                ],
                [
                    216,
                    216,
                    48
                ]
            ],
            [
                [
                    4,
                    0
                ],
                [
                    112,
                    72,
                    48
                ]
            ],
            [
                [
                    5,
                    0
                ],
                [
                    248,
                    176,
                    88
                ]
            ],
            [
                [
                    6,
                    0
                ],
                [
                    248,
                    248,
                    208
                ]
            ],
            [
                [
                    7,
                    0
                ],
                [
                    248,
                    248,
                    248
                ]
            ],
            [
                [
                    0,
                    1
                ],
                [
                    40,
                    40,
                    40
                ]
            ],
            [
                [
                    1,
                    1
                ],
                [
                    16,
                    24,
                    32
                ]
            ],
            [
                [
                    2,
                    1
                ],
                [
                    48,
                    64,
                    80
                ]
            ],
            [
                [
                    3,
                    1
                ],
                [
                    72,
                    80,
                    96
                ]
            ],
            [
                [
                    4,
                    1
                ],
                [
                    112,
                    128,
                    152
                ]
            ],
            [
                [
                    5,
                    1
                ],
                [
                    24,
                    88,
                    216
                ]
            ],
            [
                [
                    6,
                    1
                ],
                [
                    88,
                    152,
                    248
                ]
            ],
            [
                [
                    7,
                    1
                ],
                [
                    104,
                    232,
                    248
                ]
            ]
        ]
    ]
]